{
  "Title": "Psy i koty",
  "Owner": "Gabrysia",
  "Version": "1.0",
  "Duration": 900000,
  "Descryption": "quiz o psach i kotach",
  "Wages": [
    100.0,
    50.0,
    0.0,
    0.0
  ],
  "Questions": [
    {
      "Answers": [
        {
          "text": "ajskdsajdlk",
          "isTrue": true
        },
        {
          "text": "asljdksa",
          "isTrue": false
        },
        {
          "text": "ja",
          "isTrue": true
        },
        {
          "text": "j",
          "isTrue": false
        }
      ],
      "Sentance": "jsajdlkjlksad",
      "Score": 5
    },
    {
      "Answers": [
        {
          "text": "",
          "isTrue": false
        },
        {
          "text": "",
          "isTrue": false
        },
        {
          "text": "",
          "isTrue": false
        },
        {
          "text": "",
          "isTrue": false
        }
      ],
      "Sentance": "",
      "Score": 4
    }
  ]
}