{
  "Title": "Testofy",
  "Owner": "Ja",
  "Version": "1.0",
  "Duration": 900000,
  "Descryption": "cos tu sie bedzie działo",
  "Wages": [
    100.0,
    90.0,
    20.0,
    0.0
  ],
  "Questions": []
}